{
  "type": "service_account",
  "project_id": "spring-boot-kotlin",
  "private_key_id": "dc265f1c2ccb9e8d96124e0255b782968da42e23",
  "private_key": "-----BEGIN PRIVATE KEY-----\nMIIEvwIBADANBgkqhkiG9w0BAQEFAASCBKkwggSlAgEAAoIBAQC3+2hi/8a4O9IJ\nmbj6+1jpnzwYMMOBsVgJns2fhNwMocvXNzT7yKRZef3+TuD9iyAmvlX6z4vT2Oza\nzrjgGbthKPvDEv6mv6twvwGf+G/eLOfjRHz7snotvQO65WIB8mL1mKgWWu07YSuV\nvVO9sIZ/0zQAtUbdOEc0ipd/OnQg8jK2Qhnb7XkDzsoQw5ylDwFH6y8ze+QbyFHp\nfcDyH5TMPbnRyJllrn5sbsF+WgFJFvqvweCJvwHk6u2iFtpgjlh3o7ANnMlaTB+p\nAS3wyQhKpp0QME6adts2smmDTMX4QQrPy1htW/5SEQ0twpeT+cwlt4/4EZNU2Jgr\n7bSjgpfXAgMBAAECggEAY/qtKU9RkACCDVGKImnAUYSExaiKNcpHy0KO/ybV5c9u\n1E9d7Y2FMlKG4lG/FkkqeaNpWdi7Za42WFmKQc3587yvw7xowfjak3RYz7PUJupE\nQU6QlL7SglR62G+aqPAtMsV4Yl2bGW+encq63RQ2ovQFCHV6QvE4UKcX2L3NKbFI\nVApCNR+yB+NyLt1RDnqz8895at3RrlggahatLNz93EDF+YqMm1Z0A88RJMhzrPEh\n3GeUrjM54UlqGYcPkLkl/eWYOloAmE8X7KBAo4Px2laze6tTpwWacXcAa5jkWpgv\n1ztCJa7xqveK+xq/z+u64vPvGuCe4TsLcYd/QoPrAQKBgQDcHiaxD2Opw8zVT4yL\nzjmm+kvtYF6JOMXI307ZgUO6dh0QLTX4vIKhRbOlJB9BbgLH5xZIfva+aJbfY2Dm\nDn1K7nfSQTHPpDHxZCs+ZQBIxz/5GPF9nWLlk2wvEy47LVvRFFhWd4xNPC5wlrCM\n5yfKHqHpjwC/xI1hH0YsyN1hlwKBgQDV+UIjNRktQpWzlZ17zQQdsFHq9c9yD28s\nDUfaNBpih3ojuYedPXS6W8z5RnNU3wbO5nKgfztGJD/YzR1ewBkkQeHFCvQTeLeo\nZe3G64p9E/rnv2qGgIp0Ef2g4THDgtKiPPyfavTb/Db1TVJXMhey4X+0P8ABFI6T\n7lefA6rDwQKBgQCz+Y8nPG7/spF7Y/SFpxOqfIKyTxZc2meVK0jcPH31Knfu7xhv\nDSs907Dj+Nn5dIqfiknE8tKqsveRJT9oOzakmsCr0BR7M0SGm6Fj/c8ysn+TG5rw\nW0wua9CL2QH27spg9GKaKFs2F1vdQMiQHLyC3XMDdaJmKb5zR8/n9EBWdwKBgQDH\n+8L4rPPu/UB1K+yYfLDQHq8xbrSH4i0BexggtHnEhOJ+6TP6nimu04XrpRC9zgTK\n809G+iMoF1ElC+/bUqcs3/Zm9ynP2Q+t8DYfqJ0y8a2bU6f4NcMxYG8wIckk9exv\nfZiOVqSrxjqHYdEHdeX4ZhG5IawOVmw7jpOOJxs/AQKBgQCYP7j/3Y7RjLpxT3Oz\nm3/FjysN8Gu3/lxBwqSB56+v/00D7R/sMVz6qBBvb2eGbgS00y8DXNEVJ8W0BI3I\nLm+xjre1dpDLKUVVrK6WUqzU607NkzAMd0sHOCDA1CmNTzIqVF+e3IpTT4jy0rly\n3ITUodYrKbBoehU27nxxHr26pA==\n-----END PRIVATE KEY-----\n",
  "client_email": "firebase-adminsdk-s5fl5@spring-boot-kotlin.iam.gserviceaccount.com",
  "client_id": "113829889163682958528",
  "auth_uri": "https://accounts.google.com/o/oauth2/auth",
  "token_uri": "https://accounts.google.com/o/oauth2/token",
  "auth_provider_x509_cert_url": "https://www.googleapis.com/oauth2/v1/certs",
  "client_x509_cert_url": "https://www.googleapis.com/robot/v1/metadata/x509/firebase-adminsdk-s5fl5%40spring-boot-kotlin.iam.gserviceaccount.com"
}
